{"data":{"metaData":{"siteName":"Abdul's Musings","siteDescription":"A simple blog to pen my findings and idk idk."},"allPost":{"totalCount":30,"pageInfo":{"totalPages":6,"currentPage":6},"edges":[{"node":{"id":"4d5dfeaada8c9a40ff7fa36cb7b69b1d","title":"Beginning DevOps - Day 4","timeToRead":1,"description":"Jenkins showed me pepper.","date":"29 May 2020","path":"/read/beginning-dev-ops-day-4"}},{"node":{"id":"4350e7d54e6d0fa87ffb3069cb2375bc","title":"Beginning DevOps - Day 3","timeToRead":1,"description":"Other integrated services & moving on.","date":"28 May 2020","path":"/read/beginning-dev-ops-day-3"}},{"node":{"id":"330e3eedc4fda14a12e0fbef61b77491","title":"Beginning DevOps - Day 2","timeToRead":3,"description":"Load balancing, VPC, Auto Scaling etc.","date":"27 May 2020","path":"/read/beginning-dev-ops-day-2"}},{"node":{"id":"0cce094e4ce3711c0adcbce309a95d07","title":"Beginning DevOps - Day 1","timeToRead":3,"description":"Beginning a new path in the world of IT: DevOps.","date":"26 May 2020","path":"/read/beginning-dev-ops-day-1"}},{"node":{"id":"7be5cc400cf888739b728e28c6ed1585","title":"Confused","timeToRead":2,"description":"No idea what I want.","date":"24 May 2020","path":"/read/confused"}}]}},"context":{}}