{"data":{"metaData":{"siteName":"Abdul's Musings","siteDescription":"A simple blog to pen my findings and idk idk."},"allPost":{"totalCount":29,"pageInfo":{"totalPages":6,"currentPage":5},"edges":[{"node":{"id":"a18c577b571fcc4ba826ce41af19436b","title":"Balance","timeToRead":2,"description":"Clueless, honestly. Interview is temporary, skills are permanent.","date":"2 June 2020","path":"/read/balance"}},{"node":{"id":"13d8bc6fade09ae678588fa690fb97a8","title":"Beginning DevOps - Day 7","timeToRead":1,"description":"It's a week already! Easily the happiest week this year.","date":"1 June 2020","path":"/read/beginning-dev-ops-day-7"}},{"node":{"id":"b39f961ea50b1f877cb501da200ed23f","title":"Beginning DevOps - Day 6","timeToRead":2,"description":"Never use sudo when you're tired.","date":"31 May 2020","path":"/read/beginning-dev-ops-day-6"}},{"node":{"id":"48af40754d2963f91a53cf1d4ac7dec9","title":"Beginning DevOps - Day 5","timeToRead":1,"description":"196 instead of 192, sighs.","date":"30 May 2020","path":"/read/beginning-dev-ops-day-5"}},{"node":{"id":"4d5dfeaada8c9a40ff7fa36cb7b69b1d","title":"Beginning DevOps - Day 4","timeToRead":1,"description":"Jenkins showed me pepper.","date":"29 May 2020","path":"/read/beginning-dev-ops-day-4"}}]}},"context":{}}